com/itechart/redisson/service/impl/CachingUserService.class
com/itechart/redisson/service/impl/UserServiceImpl.class
com/itechart/redisson/entity/UserEntity$UserEntityBuilder.class
com/itechart/redisson/model/User$UserBuilder.class
com/itechart/redisson/config/RedisConfig.class
com/itechart/redisson/service/impl/caching/CachingService.class
com/itechart/redisson/mapper/UserMapper.class
com/itechart/redisson/repository/UserRepository.class
com/itechart/redisson/entity/UserEntity.class
com/itechart/redisson/service/impl/caching/impl/CachingServiceImpl.class
com/itechart/redisson/service/UserService.class
com/itechart/redisson/RedissonApplication.class
com/itechart/redisson/entity/AbstractEntity.class
com/itechart/redisson/model/User.class
com/itechart/redisson/api/UserApiController.class
