/Users/vladmigura/IdeaProjects/redisson/src/main/java/com/itechart/redisson/api/UserApiController.java
/Users/vladmigura/IdeaProjects/redisson/src/main/java/com/itechart/redisson/service/impl/caching/CachingService.java
/Users/vladmigura/IdeaProjects/redisson/src/main/java/com/itechart/redisson/entity/AbstractEntity.java
/Users/vladmigura/IdeaProjects/redisson/src/main/java/com/itechart/redisson/service/UserService.java
/Users/vladmigura/IdeaProjects/redisson/src/main/java/com/itechart/redisson/config/RedisConfig.java
/Users/vladmigura/IdeaProjects/redisson/src/main/java/com/itechart/redisson/service/impl/UserServiceImpl.java
/Users/vladmigura/IdeaProjects/redisson/src/main/java/com/itechart/redisson/RedissonApplication.java
/Users/vladmigura/IdeaProjects/redisson/src/main/java/com/itechart/redisson/entity/UserEntity.java
/Users/vladmigura/IdeaProjects/redisson/src/main/java/com/itechart/redisson/model/User.java
/Users/vladmigura/IdeaProjects/redisson/src/main/java/com/itechart/redisson/service/impl/CachingUserService.java
/Users/vladmigura/IdeaProjects/redisson/src/main/java/com/itechart/redisson/mapper/UserMapper.java
/Users/vladmigura/IdeaProjects/redisson/src/main/java/com/itechart/redisson/repository/UserRepository.java
/Users/vladmigura/IdeaProjects/redisson/src/main/java/com/itechart/redisson/service/impl/caching/impl/CachingServiceImpl.java
